{
    "name": "BipolarStepper",
    "keywords": "BipolarStepper,",
    "description": "A Non Blocking Driver for a Bipolar Stepper Motor using Arduino Motor Shield R3",
    "authors":
    {
        "name": "npapnet",
        "email": "npapnet@gmail.com",
        "url": "https://github.com/tinkerspy"
    },
    "repository":
    {
        "type": "git",
        "url": "https://bitbucket.org/npapnet/ard.bipolarsteppermotorasync"
    },
    "frameworks": "arduino",
    "platforms": "atmelavr"
}
